Adenocarcinoma prostático
…
#Listar os nomes dos componentes do objeto
names(clinical.PRAD)

## [1] "clinical_omf_v4.0_prad"       "clinical_follow_up_v1.0_prad"
## [3] "clinical_radiation_prad"      "clinical_nte_prad"           
## [5] "clinical_drug_prad"           "clinical_patient_prad"

#Verificar os dados clínicos disponíveis
head(clinical.PRAD)

## $clinical_omf_v4.0_prad
## # A tibble: 34 × 30
##    bcr_patient_uuid             bcr_patient_barcode bcr_omf_barcode bcr_omf_uuid
##    <chr>                        <chr>               <chr>           <chr>       
##  1 bcr_patient_uuid             bcr_patient_barcode bcr_omf_barcode bcr_omf_uuid
##  2 CDE_ID:                      CDE_ID:2003301      CDE_ID:         CDE_ID:     
##  3 928c48a0-68ee-4e28-ae83-983… TCGA-CH-5753        TCGA-CH-5753-O… B2466F9B-13…
##  4 18e79a01-07a2-4cd5-b700-71d… TCGA-CH-5763        TCGA-CH-5763-O… 111B40BE-4E…
##  5 ed73f136-42e8-4100-b432-d10… TCGA-CH-5764        TCGA-CH-5764-O… 9611057D-FF…
##  6 ecf9f8be-7830-4626-8617-694… TCGA-CH-5772        TCGA-CH-5772-O… 6C9BD7FE-C4…
##  7 2b5ef82d-e137-43f6-bfef-b20… TCGA-CH-5790        TCGA-CH-5790-O… 2B7213FE-FA…
##  8 829bed0c-c40d-44fd-aee8-6c7… TCGA-CH-5791        TCGA-CH-5791-O… 9E1A75E6-ED…
##  9 5a92ec4c-36ee-4588-aca2-e33… TCGA-EJ-5542        TCGA-EJ-5542-O… 33FCD3BA-27…
## 10 9519be01-d78d-462c-8a95-341… TCGA-EJ-7123        TCGA-EJ-7123-O… 5282E272-C2…
## # ℹ 24 more rows
## # ℹ 26 more variables: form_completion_date <chr>, malignancy_type <chr>,
## #   other_malignancy_dx_days_to <chr>, surgery_indicator <chr>,
## #   other_malignancy_surgery_type <chr>,
## #   other_malignancy_surgery_days_to <chr>,
## #   pharmaceutical_therapy_indicator <chr>,
## #   pharmaceutical_therapy_extent <chr>, …
## 
## $clinical_follow_up_v1.0_prad
## # A tibble: 510 × 29
##    bcr_patient_uuid   bcr_patient_barcode bcr_followup_barcode bcr_followup_uuid
##    <chr>              <chr>               <chr>                <chr>            
##  1 bcr_patient_uuid   bcr_patient_barcode bcr_followup_barcode bcr_followup_uuid
##  2 CDE_ID:            CDE_ID:2003301      CDE_ID:              CDE_ID:          
##  3 49197847-CC83-4CE… TCGA-2A-A8VL        TCGA-2A-A8VL-F71759  6E1A6CED-30C0-4A…
##  4 91C0D161-2B59-4B7… TCGA-2A-A8VO        TCGA-2A-A8VO-F71780  3A8226A3-E762-4C…
##  5 931B549F-B9F2-4E8… TCGA-2A-A8VT        TCGA-2A-A8VT-F71798  2194A7E8-9DD7-4E…
##  6 75A7AFB5-66D5-47E… TCGA-2A-A8VV        TCGA-2A-A8VV-F71800  FC901101-A4AB-46…
##  7 942F1788-D977-4AC… TCGA-2A-A8VX        TCGA-2A-A8VX-F71804  24877403-12D1-40…
##  8 F5319FD5-BEAE-4CA… TCGA-2A-A8W1        TCGA-2A-A8W1-F71808  8ECE00DC-877F-4C…
##  9 5A790086-4887-4D2… TCGA-2A-A8W3        TCGA-2A-A8W3-F71815  50CC6A78-1576-40…
## 10 490E84ED-3C02-459… TCGA-2A-AAYF        TCGA-2A-AAYF-F71830  F16D469B-D8E9-47…
## # ℹ 500 more rows
## # ℹ 25 more variables: form_completion_date <chr>, followup_reason <chr>,
## #   followup_lost_to <chr>, radiation_treatment_adjuvant <chr>,
## #   pharmaceutical_tx_adjuvant <chr>, treatment_outcome_first_course <chr>,
## #   vital_status <chr>, last_contact_days_to <chr>, death_days_to <chr>,
## #   tumor_status <chr>, cause_of_death <chr>, cause_of_death_source <chr>,
## #   new_tumor_event_dx_indicator <chr>, new_tumor_event_type <chr>, …
## 
## $clinical_radiation_prad
## # A tibble: 85 × 18
##    bcr_patient_uuid bcr_patient_barcode bcr_radiation_barcode bcr_radiation_uuid
##    <chr>            <chr>               <chr>                 <chr>             
##  1 bcr_patient_uuid bcr_patient_barcode bcr_radiation_barcode bcr_radiation_uuid
##  2 CDE_ID:          CDE_ID:2003301      CDE_ID:               CDE_ID:           
##  3 931B549F-B9F2-4… TCGA-2A-A8VT        TCGA-2A-A8VT-R64625   75D9201B-00AF-41E…
##  4 4048c139-1329-4… TCGA-EJ-5524        TCGA-EJ-5524-R46761   0C19B3E6-777D-4F3…
##  5 8631BB5E-6D08-4… TCGA-EJ-A65F        TCGA-EJ-A65F-R57144   9EA118D9-8D02-43D…
##  6 30F623A3-DAE7-4… TCGA-FC-A4JI        TCGA-FC-A4JI-R48399   B4B75A12-B874-49A…
##  7 F7238E82-A394-4… TCGA-FC-A5OB        TCGA-FC-A5OB-R61439   AD9F903F-51FB-4E4…
##  8 F7238E82-A394-4… TCGA-FC-A5OB        TCGA-FC-A5OB-R61440   3C8C9090-3CAF-48E…
##  9 d39d1a49-fcc0-4… TCGA-G9-6339        TCGA-G9-6339-R50682   0B360FC8-C6AC-47E…
## 10 f59b9c65-46e8-4… TCGA-G9-6351        TCGA-G9-6351-R68539   50BB5381-8DE2-4F7…
## # ℹ 75 more rows
## # ℹ 14 more variables: form_completion_date <chr>,
## #   radiation_therapy_type <chr>, radiation_therapy_site <chr>,
## #   radiation_total_dose <chr>, radiation_adjuvant_units <chr>,
## #   radiation_adjuvant_fractions_total <chr>,
## #   radiation_therapy_started_days_to <chr>,
## #   radiation_therapy_ongoing_indicator <chr>, …
## 
## $clinical_nte_prad
## # A tibble: 109 × 10
##    bcr_patient_uuid                     bcr_patient_barcode new_tumor_event_type
##    <chr>                                <chr>               <chr>               
##  1 bcr_patient_uuid                     bcr_patient_barcode new_neoplasm_event_…
##  2 CDE_ID:                              CDE_ID:2003301      CDE_ID:3119721      
##  3 5A790086-4887-4D2B-9C28-0FDD5DD1F1FB TCGA-2A-A8W3        Biochemical evidenc…
##  4 5e2ff1e6-87bc-4b91-a959-f0f553af4e27 TCGA-EJ-7318        Locoregional Recurr…
##  5 df4a7caa-6289-4157-8cb4-6ce8784e7506 TCGA-EJ-8469        Biochemical evidenc…
##  6 ab378ad0-1881-403f-9e85-d6f97e7b7c81 TCGA-EJ-8472        Biochemical evidenc…
##  7 08F11BDD-D665-45AB-B1A2-5485D91922C2 TCGA-EJ-A46F        Biochemical evidenc…
##  8 8631BB5E-6D08-4C20-A85E-CB84F5DAC290 TCGA-EJ-A65F        Biochemical evidenc…
##  9 4EF24CCA-976B-4C2F-8810-4339967DA570 TCGA-EJ-A6RA        Locoregional Recurr…
## 10 C8FAB4A7-FD7E-4D5E-A330-18C7E148B9D0 TCGA-EJ-A7NN        Biochemical evidenc…
## # ℹ 99 more rows
## # ℹ 7 more variables: new_tumor_event_dx_days_to <chr>,
## #   new_tumor_event_site <chr>, new_tumor_event_site_other <chr>,
## #   progression_after_hormone_tx <chr>,
## #   progression_after_hormone_tx_type <chr>,
## #   new_tumor_event_radiation_tx <chr>, new_tumor_event_pharmaceutical_tx <chr>
## 
## $clinical_drug_prad
## # A tibble: 132 × 28
##    bcr_patient_uuid           bcr_patient_barcode bcr_drug_barcode bcr_drug_uuid
##    <chr>                      <chr>               <chr>            <chr>        
##  1 bcr_patient_uuid           bcr_patient_barcode bcr_drug_barcode bcr_drug_uuid
##  2 CDE_ID:                    CDE_ID:2003301      CDE_ID:          CDE_ID:      
##  3 931B549F-B9F2-4E8D-83ED-F… TCGA-2A-A8VT        TCGA-2A-A8VT-D6… 9804256C-57A…
##  4 47ABCD03-C6FF-4777-AC26-F… TCGA-4L-AA1F        TCGA-4L-AA1F-D6… 00CA7115-777…
##  5 b3bf57d4-e31a-4740-b438-f… TCGA-CH-5741        TCGA-CH-5741-D3… 614689F1-AD8…
##  6 721e76d0-4b1d-4e78-adb8-1… TCGA-CH-5751        TCGA-CH-5751-D3… 7C511DDA-B63…
##  7 721e76d0-4b1d-4e78-adb8-1… TCGA-CH-5751        TCGA-CH-5751-D3… 96ED97DC-870…
##  8 721e76d0-4b1d-4e78-adb8-1… TCGA-CH-5751        TCGA-CH-5751-D3… F97A29DB-365…
##  9 d8f56d75-51ab-4a86-a502-c… TCGA-CH-5752        TCGA-CH-5752-D3… 69D28B65-049…
## 10 c039014f-821c-43d6-9d3c-9… TCGA-CH-5788        TCGA-CH-5788-D3… 1CA58FB7-31C…
## # ℹ 122 more rows
## # ℹ 24 more variables: form_completion_date <chr>,
## #   pharmaceutical_therapy_drug_name <chr>,
## #   clinical_trial_drug_classification <chr>,
## #   pharmaceutical_therapy_type <chr>, pharmaceutical_tx_started_days_to <chr>,
## #   pharmaceutical_tx_ongoing_indicator <chr>,
## #   pharmaceutical_tx_ended_days_to <chr>, treatment_best_response <chr>, …
## 
## $clinical_patient_prad
## # A tibble: 502 × 70
##    bcr_patient_uuid                     bcr_patient_barcode form_completion_date
##    <chr>                                <chr>               <chr>               
##  1 bcr_patient_uuid                     bcr_patient_barcode form_completion_date
##  2 CDE_ID:                              CDE_ID:2003301      CDE_ID:             
##  3 49197847-CC83-4CE1-8397-D09CEA4C4928 TCGA-2A-A8VL        2014-3-29           
##  4 91C0D161-2B59-4B7A-8C19-6D26DEA31849 TCGA-2A-A8VO        2014-3-30           
##  5 931B549F-B9F2-4E8D-83ED-FF663671883C TCGA-2A-A8VT        2014-3-29           
##  6 75A7AFB5-66D5-47E3-8A8A-3E3A1E749A96 TCGA-2A-A8VV        2014-3-29           
##  7 942F1788-D977-4AC0-A177-659F9D4CD077 TCGA-2A-A8VX        2014-3-29           
##  8 F5319FD5-BEAE-4CA8-8F42-45FCA5E6A2D2 TCGA-2A-A8W1        2014-3-29           
##  9 5A790086-4887-4D2B-9C28-0FDD5DD1F1FB TCGA-2A-A8W3        2014-3-29           
## 10 490E84ED-3C02-4593-990E-ADE5C109DF44 TCGA-2A-AAYF        2014-7-7            
## # ℹ 492 more rows
## # ℹ 67 more variables: histologic_diagnosis <chr>,
## #   histologic_diagnosis_other <chr>, zone_of_origin <chr>,
## #   gleason_pattern_primary <chr>, gleason_pattern_secondary <chr>,
## #   gleason_score <chr>, gleason_pattern_tertiary <chr>, laterality <chr>,
## #   tumor_level <chr>, gender <chr>, prospective_collection <chr>,
## #   retrospective_collection <chr>, birth_days_to <chr>, …
…
